{"uid":"8a352c4051ef19c","name":"get-loan-products","fullName":"View Products#get-loan-products","historyId":"36becac8-b7ff-4212-bcd8-0f7390ccc342","time":{"start":1702406720687,"stop":1702406720808,"duration":121},"status":"passed","flaky":false,"newFailed":false,"newBroken":false,"newPassed":false,"retriesCount":0,"retriesStatusChange":false,"beforeStages":[],"testStage":{"status":"passed","steps":[{"name":"Status code is 200","time":{"start":1702406720801,"stop":1702406720801,"duration":0},"status":"passed","steps":[],"attachments":[],"parameters":[],"shouldDisplayMessage":false,"stepsCount":0,"attachmentsCount":0,"hasContent":false,"attachmentStep":false},{"name":"Your test Details","time":{"start":1702406720802,"stop":1702406720802,"duration":0},"status":"passed","steps":[],"attachments":[],"parameters":[],"shouldDisplayMessage":false,"stepsCount":0,"attachmentsCount":0,"hasContent":false,"attachmentStep":false},{"name":"Your test SuccessMessage","time":{"start":1702406720803,"stop":1702406720803,"duration":0},"status":"passed","steps":[],"attachments":[],"parameters":[],"shouldDisplayMessage":false,"stepsCount":0,"attachmentsCount":0,"hasContent":false,"attachmentStep":false}],"attachments":[{"uid":"40704e3e87c52cfe","name":"response","source":"40704e3e87c52cfe.txt","type":"text/plain","size":10647}],"parameters":[],"shouldDisplayMessage":false,"stepsCount":3,"attachmentsCount":1,"hasContent":true,"attachmentStep":false},"afterStages":[],"labels":[{"name":"parentSuite","value":"View Products"},{"name":"resultFormat","value":"allure2"}],"parameters":[{"name":"Request","value":"POST - https://qa-api.nairacompare.ng/api/Products/get-loan-products"},{"name":"Request body","value":"{\n  \"queryString\": \"\",\n  \"rowsPerPage\": 4,\n  \"pageNumber\": 1,\n  \"total\": 10,\n  \"totalPages\": 3\n}"},{"name":"Response Code","value":"200"}],"links":[],"hidden":false,"retry":false,"extra":{"severity":"normal","retries":[],"categories":[],"tags":[]},"source":"8a352c4051ef19c.json","parameterValues":["POST - https://qa-api.nairacompare.ng/api/Products/get-loan-products","{\n  \"queryString\": \"\",\n  \"rowsPerPage\": 4,\n  \"pageNumber\": 1,\n  \"total\": 10,\n  \"totalPages\": 3\n}","200"]}