{"uid":"2effc781f3447512","name":"get-loan-products","fullName":"View products#get-loan-products","historyId":"b7683c77-3ffc-4fc5-92c5-f71d4e5a9c93","time":{"start":1702471481112,"stop":1702471481293,"duration":181},"status":"passed","flaky":false,"newFailed":false,"newBroken":false,"newPassed":false,"retriesCount":0,"retriesStatusChange":false,"beforeStages":[],"testStage":{"status":"passed","steps":[{"name":"Verify that Status code is 200","time":{"start":1702471481289,"stop":1702471481289,"duration":0},"status":"passed","steps":[],"attachments":[],"parameters":[],"hasContent":false,"attachmentStep":false,"shouldDisplayMessage":false,"stepsCount":0,"attachmentsCount":0},{"name":"Verify that response Details returns null","time":{"start":1702471481290,"stop":1702471481290,"duration":0},"status":"passed","steps":[],"attachments":[],"parameters":[],"hasContent":false,"attachmentStep":false,"shouldDisplayMessage":false,"stepsCount":0,"attachmentsCount":0},{"name":"Verify that SuccessMessage returns null","time":{"start":1702471481290,"stop":1702471481290,"duration":0},"status":"passed","steps":[],"attachments":[],"parameters":[],"hasContent":false,"attachmentStep":false,"shouldDisplayMessage":false,"stepsCount":0,"attachmentsCount":0}],"attachments":[{"uid":"ed2a408dde57687f","name":"response","source":"ed2a408dde57687f.txt","type":"text/plain","size":10647}],"parameters":[],"hasContent":true,"attachmentStep":false,"shouldDisplayMessage":false,"stepsCount":3,"attachmentsCount":1},"afterStages":[],"labels":[{"name":"parentSuite","value":"View products"},{"name":"resultFormat","value":"allure2"}],"parameters":[{"name":"Request","value":"POST - https://qa-api.nairacompare.ng/api/Products/get-loan-products"},{"name":"Request body","value":"{\n  \"queryString\": \"\",\n  \"rowsPerPage\": 4,\n  \"pageNumber\": 1,\n  \"total\": 10,\n  \"totalPages\": 3\n}"},{"name":"Response Code","value":"200"}],"links":[],"hidden":false,"retry":false,"extra":{"severity":"normal","retries":[],"categories":[],"tags":[]},"source":"2effc781f3447512.json","parameterValues":["POST - https://qa-api.nairacompare.ng/api/Products/get-loan-products","{\n  \"queryString\": \"\",\n  \"rowsPerPage\": 4,\n  \"pageNumber\": 1,\n  \"total\": 10,\n  \"totalPages\": 3\n}","200"]}