{"uid":"5b2f280cc77931c8","name":"/api/Products/get-loan-products","fullName":"View products#/api/Products/get-loan-products","historyId":"06adb9a9-8047-47d4-ae1d-a7831d1297c4","time":{"start":1702472471814,"stop":1702472472017,"duration":203},"status":"passed","flaky":false,"newFailed":false,"newBroken":false,"newPassed":false,"retriesCount":0,"retriesStatusChange":false,"beforeStages":[],"testStage":{"status":"passed","steps":[{"name":"Verify that Status code is 200","time":{"start":1702472472012,"stop":1702472472012,"duration":0},"status":"passed","steps":[],"attachments":[],"parameters":[],"shouldDisplayMessage":false,"stepsCount":0,"attachmentsCount":0,"hasContent":false,"attachmentStep":false},{"name":"Verify that test Details is equall to null","time":{"start":1702472472013,"stop":1702472472013,"duration":0},"status":"passed","steps":[],"attachments":[],"parameters":[],"shouldDisplayMessage":false,"stepsCount":0,"attachmentsCount":0,"hasContent":false,"attachmentStep":false},{"name":"Verify that test SuccessMessage is equal to null","time":{"start":1702472472013,"stop":1702472472013,"duration":0},"status":"passed","steps":[],"attachments":[],"parameters":[],"shouldDisplayMessage":false,"stepsCount":0,"attachmentsCount":0,"hasContent":false,"attachmentStep":false}],"attachments":[{"uid":"f40e0de05131ae92","name":"response","source":"f40e0de05131ae92.txt","type":"text/plain","size":14003}],"parameters":[],"shouldDisplayMessage":false,"stepsCount":3,"attachmentsCount":1,"hasContent":true,"attachmentStep":false},"afterStages":[],"labels":[{"name":"parentSuite","value":"View products"},{"name":"resultFormat","value":"allure2"}],"parameters":[{"name":"Request","value":"POST - https://api.nairacompare.ng/api/Products/get-loan-products"},{"name":"Request body","value":"{\n  \"queryString\": \"\",\n  \"rowsPerPage\": 4,\n  \"pageNumber\": 1,\n  \"total\": 10,\n  \"totalPages\": 3\n}"},{"name":"Response Code","value":"200"}],"links":[],"hidden":false,"retry":false,"extra":{"severity":"normal","retries":[],"categories":[],"tags":[]},"source":"5b2f280cc77931c8.json","parameterValues":["POST - https://api.nairacompare.ng/api/Products/get-loan-products","{\n  \"queryString\": \"\",\n  \"rowsPerPage\": 4,\n  \"pageNumber\": 1,\n  \"total\": 10,\n  \"totalPages\": 3\n}","200"]}