{"isSuccess":true,"message":"Success","data":{"successMessage":"Records retrieved successfully","errorMessage":null,"responseCode":200,"total":337,"totalPages":68,"rowsPerPage":5,"pageItemsCount":5,"pageNumber":1,"queryString":"","list":[[{"applicationID":"5121723c-ca7d-4064-b1a0-7bba8a7811b8","productID":"46fd9ca6-f179-4d56-9e45-b50b257a65c2","categoryName":"Children's Savings Account","customerID":"6f0f0344-4c13-4e06-a5df-29cab489c206","dateOfApplication":"2023-12-15T00:00:00","dateCreated":"2023-12-15T11:58:52.567","firstName":"Richard","lastName":"Adibe","email":"adiberichard12@gmail.com","phone":"2348066923517","gender":"male","providerName":"Realty Invest Network Solution","providerID":"f2158613-d3ab-47e1-9246-c40fd5b2ae42","productName":"Realty Children Savings","providerLogoFileSystemId":"35825ed8-e3f0-4297-a4b1-85ee03aad0eb","amount":"10000.00","interestRate":null,"duration":"3","categoryUrlSlug":"children-savings-account","applicationStatus":"Savings Pending","applicationNumber":"23/FP-0068/NC/0865","allApplicationId":"3415c42f-0fb4-48b0-98ab-b7a29de68927","commonPersonalDetailID":null,"customerIdentityId":null,"concurrencyHash":null,"dataSource":"Customer Savings","commonBankAccountDetailSourceId":null,"commonBankAccountDetailIncomingId":null,"commonAddressDetailId":null,"nextOfKinDetailId":"0d19e397-29fc-4c11-9aea-fe9dafafac5f","campaignID":null,"productType":"Savings"},{"applicationID":"722fb134-c061-45a8-a3a6-bb9517847865","productID":"46fd9ca6-f179-4d56-9e45-b50b257a65c2","categoryName":"Children's Savings Account","customerID":"6f0f0344-4c13-4e06-a5df-29cab489c206","dateOfApplication":"2023-12-15T00:00:00","dateCreated":"2023-12-15T12:06:13.54","firstName":"Richard","lastName":"Adibe","email":"adiberichard12@gmail.com","phone":"2348066923517","gender":"male","providerName":"Realty Invest Network Solution","providerID":"f2158613-d3ab-47e1-9246-c40fd5b2ae42","productName":"Realty Children Savings","providerLogoFileSystemId":"35825ed8-e3f0-4297-a4b1-85ee03aad0eb","amount":"10000.00","interestRate":null,"duration":"3","categoryUrlSlug":"children-savings-account","applicationStatus":"Savings Pending","applicationNumber":"23/FP-0068/NC/0869","allApplicationId":"d26e9f00-16f9-4743-b081-46086300852a","commonPersonalDetailID":null,"customerIdentityId":null,"concurrencyHash":null,"dataSource":"Customer Savings","commonBankAccountDetailSourceId":null,"commonBankAccountDetailIncomingId":null,"commonAddressDetailId":null,"nextOfKinDetailId":"73a3bcac-605d-4133-a041-d0c9bcf41b43","campaignID":null,"productType":"Savings"},{"applicationID":"9e59f311-f669-4211-9a29-6f312ded73d7","productID":"46fd9ca6-f179-4d56-9e45-b50b257a65c2","categoryName":"Children's Savings Account","customerID":"6f0f0344-4c13-4e06-a5df-29cab489c206","dateOfApplication":"2023-12-15T00:00:00","dateCreated":"2023-12-15T11:58:52.467","firstName":"Richard","lastName":"Adibe","email":"adiberichard12@gmail.com","phone":"2348066923517","gender":"male","providerName":"Realty Invest Network Solution","providerID":"f2158613-d3ab-47e1-9246-c40fd5b2ae42","productName":"Realty Children Savings","providerLogoFileSystemId":"35825ed8-e3f0-4297-a4b1-85ee03aad0eb","amount":"10000.00","interestRate":null,"duration":"3","categoryUrlSlug":"children-savings-account","applicationStatus":"Savings Pending","applicationNumber":"23/FP-0068/NC/0865","allApplicationId":"b75fc860-4ece-4391-bd15-f1b73a44ed49","commonPersonalDetailID":null,"customerIdentityId":null,"concurrencyHash":null,"dataSource":"Customer Savings","commonBankAccountDetailSourceId":null,"commonBankAccountDetailIncomingId":null,"commonAddressDetailId":null,"nextOfKinDetailId":"bfe25d2a-1620-4170-9870-1f75d384ead1","campaignID":null,"productType":"Savings"},{"applicationID":"fd10f110-f8e5-4173-8bae-24631d95530a","productID":"46fd9ca6-f179-4d56-9e45-b50b257a65c2","categoryName":"Children's Savings Account","customerID":"6f0f0344-4c13-4e06-a5df-29cab489c206","dateOfApplication":"2023-12-15T00:00:00","dateCreated":"2023-12-15T12:06:08.333","firstName":"Richard","lastName":"Adibe","email":"adiberichard12@gmail.com","phone":"2348066923517","gender":"male","providerName":"Realty Invest Network Solution","providerID":"f2158613-d3ab-47e1-9246-c40fd5b2ae42","productName":"Realty Children Savings","providerLogoFileSystemId":"35825ed8-e3f0-4297-a4b1-85ee03aad0eb","amount":"10000.00","interestRate":null,"duration":"3","categoryUrlSlug":"children-savings-account","applicationStatus":"Savings Pending","applicationNumber":"23/FP-0068/NC/0868","allApplicationId":"53b9348f-b701-4fdc-8d46-8ba5ac9d8cc1","commonPersonalDetailID":null,"customerIdentityId":null,"concurrencyHash":null,"dataSource":"Customer Savings","commonBankAccountDetailSourceId":null,"commonBankAccountDetailIncomingId":null,"commonAddressDetailId":null,"nextOfKinDetailId":"fdf454c6-66b9-4118-b8a9-d2334dcf7716","campaignID":null,"productType":"Savings"},{"applicationID":"07581233-25f4-496f-98b6-a0100025c9cd","productID":"46fd9ca6-f179-4d56-9e45-b50b257a65c2","categoryName":"Children's Savings Account","customerID":"6f0f0344-4c13-4e06-a5df-29cab489c206","dateOfApplication":"2023-12-14T00:00:00","dateCreated":"2023-12-14T07:33:36.937","firstName":"Richard","lastName":"Adibe","email":"adiberichard12@gmail.com","phone":"2348066923517","gender":"male","providerName":"Realty Invest Network Solution","providerID":"f2158613-d3ab-47e1-9246-c40fd5b2ae42","productName":"Realty Children Savings","providerLogoFileSystemId":"35825ed8-e3f0-4297-a4b1-85ee03aad0eb","amount":"10000.00","interestRate":null,"duration":"3","categoryUrlSlug":"children-savings-account","applicationStatus":"Savings Pending","applicationNumber":"23/FP-0068/NC/0776","allApplicationId":"319051b9-d563-4efb-b891-32a95f27a00d","commonPersonalDetailID":null,"customerIdentityId":null,"concurrencyHash":null,"dataSource":"Customer Savings","commonBankAccountDetailSourceId":null,"commonBankAccountDetailIncomingId":null,"commonAddressDetailId":null,"nextOfKinDetailId":"8116cc79-c5a5-4c2b-ac55-cfadba55b050","campaignID":null,"productType":"Savings"}]],"details":null},"errors":null,"statusCode":200}