{"isSuccess":true,"message":"Success","data":{"successMessage":"Records retrieved successfully","errorMessage":null,"responseCode":200,"total":10,"totalPages":2,"rowsPerPage":5,"pageItemsCount":5,"pageNumber":1,"queryString":"","list":[[{"applicationID":"26abfbeb-e39e-4117-a830-bef54f2284e0","productID":"95fc30bc-994d-46aa-a519-73351815bdca","categoryName":"SME Business Loans","customerID":"6f0f0344-4c13-4e06-a5df-29cab489c206","dateOfApplication":"2024-01-19T00:00:00","dateCreated":"2024-01-19T11:34:56.777","firstName":"Richard","lastName":"Adibe","email":"adiberichard12@gmail.com","phone":"2348066923517","gender":"male","providerName":"Realty Invest Network Solution","providerID":"f2158613-d3ab-47e1-9246-c40fd5b2ae42","productName":"Realty Business Loan","providerLogoFileSystemId":"35825ed8-e3f0-4297-a4b1-85ee03aad0eb","amount":"663430.00","interestRate":null,"duration":"9","categoryUrlSlug":"sme-business-loans","applicationStatus":"Lender Notified","applicationNumber":"24/FP-0068/NC/0033","allApplicationId":"9ac3a0fd-51fb-40cd-96e6-295cb8b6ca3e","commonPersonalDetailID":null,"customerIdentityId":null,"concurrencyHash":"9CF84C89FB7FDA805D5D4E9DD4E3B37CFDFFDD0F8F38087427800F1ECF6E2DAB","dataSource":"Common Applications","commonBankAccountDetailSourceId":null,"commonBankAccountDetailIncomingId":null,"commonAddressDetailId":null,"nextOfKinDetailId":null,"campaignID":"","productType":"Loan"},{"applicationID":"ebd9b906-ee04-446d-904a-900b08c40547","productID":"95fc30bc-994d-46aa-a519-73351815bdca","categoryName":"SME Business Loans","customerID":"6f0f0344-4c13-4e06-a5df-29cab489c206","dateOfApplication":"2024-01-12T00:00:00","dateCreated":"2024-01-12T10:37:00.007","firstName":"Richard","lastName":"Adibe","email":"adiberichard12@gmail.com","phone":"2348066923517","gender":"male","providerName":"Realty Invest Network Solution","providerID":"f2158613-d3ab-47e1-9246-c40fd5b2ae42","productName":"Realty Business Loan","providerLogoFileSystemId":"35825ed8-e3f0-4297-a4b1-85ee03aad0eb","amount":"401250.00","interestRate":null,"duration":"3","categoryUrlSlug":"sme-business-loans","applicationStatus":"Lender Notified","applicationNumber":"24/FP-0068/NC/0020","allApplicationId":"49fe3e07-31e4-42d8-bb1a-6f769020f180","commonPersonalDetailID":null,"customerIdentityId":null,"concurrencyHash":"095B3D13DBF388BA17C8360010C66AABFEDAD29B22A46B332C053070EEE4B2CA","dataSource":"Common Applications","commonBankAccountDetailSourceId":null,"commonBankAccountDetailIncomingId":null,"commonAddressDetailId":null,"nextOfKinDetailId":null,"campaignID":"","productType":"Loan"},{"applicationID":"a9fecb98-e91c-47e5-8fb2-e898a22c7c39","productID":"95fc30bc-994d-46aa-a519-73351815bdca","categoryName":"SME Business Loans","customerID":"6f0f0344-4c13-4e06-a5df-29cab489c206","dateOfApplication":"2024-01-11T00:00:00","dateCreated":"2024-01-11T16:25:30.053","firstName":"Richard","lastName":"Adibe","email":"adiberichard12@gmail.com","phone":"2348066923517","gender":"male","providerName":"Realty Invest Network Solution","providerID":"f2158613-d3ab-47e1-9246-c40fd5b2ae42","productName":"Realty Business Loan","providerLogoFileSystemId":"35825ed8-e3f0-4297-a4b1-85ee03aad0eb","amount":"1108370.00","interestRate":null,"duration":"3","categoryUrlSlug":"sme-business-loans","applicationStatus":"Awaiting Director Approval","applicationNumber":"24/FP-0068/NC/0019","allApplicationId":"6e47e3cc-1e68-48f9-b836-26e05e369b42","commonPersonalDetailID":null,"customerIdentityId":null,"concurrencyHash":"3DDA513004674234A41AAA7D385BBE8427BB8FF50027500DA4980269299F4012","dataSource":"Common Applications","commonBankAccountDetailSourceId":null,"commonBankAccountDetailIncomingId":null,"commonAddressDetailId":null,"nextOfKinDetailId":null,"campaignID":"","productType":"Loan"},{"applicationID":"d1759821-19b4-492b-a60a-2d83052f46c5","productID":"95fc30bc-994d-46aa-a519-73351815bdca","categoryName":"SME Business Loans","customerID":"6f0f0344-4c13-4e06-a5df-29cab489c206","dateOfApplication":"2024-01-11T00:00:00","dateCreated":"2024-01-11T16:00:43.943","firstName":"Richard","lastName":"Adibe","email":"adiberichard12@gmail.com","phone":"2348066923517","gender":"male","providerName":"Realty Invest Network Solution","providerID":"f2158613-d3ab-47e1-9246-c40fd5b2ae42","productName":"Realty Business Loan","providerLogoFileSystemId":"35825ed8-e3f0-4297-a4b1-85ee03aad0eb","amount":"1007740.00","interestRate":null,"duration":"3","categoryUrlSlug":"sme-business-loans","applicationStatus":"Lender Notified","applicationNumber":"24/FP-0068/NC/0018","allApplicationId":"3d042f9f-d8ce-4f77-b93d-e5b8a6ffc6d2","commonPersonalDetailID":null,"customerIdentityId":null,"concurrencyHash":"8B26911ED0BE63CA7130ADEBCC26C5137653A3E5D59B17258FE9FABB6163B8A7","dataSource":"Common Applications","commonBankAccountDetailSourceId":null,"commonBankAccountDetailIncomingId":null,"commonAddressDetailId":null,"nextOfKinDetailId":null,"campaignID":"","productType":"Loan"},{"applicationID":"e2162f62-ecd7-4d2c-a5bc-c70339db0c51","productID":"95fc30bc-994d-46aa-a519-73351815bdca","categoryName":"SME Business Loans","customerID":"6f0f0344-4c13-4e06-a5df-29cab489c206","dateOfApplication":"2024-01-11T00:00:00","dateCreated":"2024-01-11T17:42:52.627","firstName":"Richard","lastName":"Adibe","email":"adiberichard12@gmail.com","phone":"2348066923517","gender":"male","providerName":"Realty Invest Network Solution","providerID":"f2158613-d3ab-47e1-9246-c40fd5b2ae42","productName":"Realty Business Loan","providerLogoFileSystemId":"35825ed8-e3f0-4297-a4b1-85ee03aad0eb","amount":"828240.00","interestRate":null,"duration":"1","categoryUrlSlug":"sme-business-loans","applicationStatus":"Awaiting Director Approval","applicationNumber":"24/FP-0068/NC/0019","allApplicationId":"1c7efaba-a32f-46d6-9021-71a2b3c3552c","commonPersonalDetailID":null,"customerIdentityId":null,"concurrencyHash":"A864733E0B7FC5CA38250EDC63C6F63C8474DCFF792CE27FC578F2FA74ED0B60","dataSource":"Common Applications","commonBankAccountDetailSourceId":null,"commonBankAccountDetailIncomingId":null,"commonAddressDetailId":null,"nextOfKinDetailId":null,"campaignID":"","productType":"Loan"}]],"details":null},"errors":null,"statusCode":200}