{"uid":"1e37363f84fbf04b","name":"get-loan-products","fullName":"View Products#get-loan-products","historyId":"6cdd6764-f546-4e6d-bfa8-665cfe6b738d","time":{"start":1702461675955,"stop":1702461676206,"duration":251},"status":"passed","flaky":false,"newFailed":false,"newBroken":false,"newPassed":false,"retriesCount":0,"retriesStatusChange":false,"beforeStages":[],"testStage":{"status":"passed","steps":[{"name":"Status code is 200","time":{"start":1702461676203,"stop":1702461676203,"duration":0},"status":"passed","steps":[],"attachments":[],"parameters":[],"shouldDisplayMessage":false,"stepsCount":0,"attachmentsCount":0,"hasContent":false,"attachmentStep":false},{"name":"Your test Details","time":{"start":1702461676204,"stop":1702461676204,"duration":0},"status":"passed","steps":[],"attachments":[],"parameters":[],"shouldDisplayMessage":false,"stepsCount":0,"attachmentsCount":0,"hasContent":false,"attachmentStep":false},{"name":"Your test SuccessMessage","time":{"start":1702461676204,"stop":1702461676204,"duration":0},"status":"passed","steps":[],"attachments":[],"parameters":[],"shouldDisplayMessage":false,"stepsCount":0,"attachmentsCount":0,"hasContent":false,"attachmentStep":false}],"attachments":[{"uid":"1af6dea57caea2fe","name":"response","source":"1af6dea57caea2fe.txt","type":"text/plain","size":10647}],"parameters":[],"shouldDisplayMessage":false,"stepsCount":3,"attachmentsCount":1,"hasContent":true,"attachmentStep":false},"afterStages":[],"labels":[{"name":"parentSuite","value":"View Products"},{"name":"resultFormat","value":"allure2"}],"parameters":[{"name":"Request","value":"POST - https://qa-api.nairacompare.ng/api/Products/get-loan-products"},{"name":"Request body","value":"{\n  \"queryString\": \"\",\n  \"rowsPerPage\": 4,\n  \"pageNumber\": 1,\n  \"total\": 10,\n  \"totalPages\": 3\n}"},{"name":"Response Code","value":"200"}],"links":[],"hidden":false,"retry":false,"extra":{"severity":"normal","retries":[],"categories":[],"tags":[]},"source":"1e37363f84fbf04b.json","parameterValues":["POST - https://qa-api.nairacompare.ng/api/Products/get-loan-products","{\n  \"queryString\": \"\",\n  \"rowsPerPage\": 4,\n  \"pageNumber\": 1,\n  \"total\": 10,\n  \"totalPages\": 3\n}","200"]}