{"uid":"e3667867ddf05cc7","name":"get-loan-products","fullName":"View products#get-loan-products","historyId":"84b6b907-7b17-4a03-b76d-03029be816f1","time":{"start":1702468245391,"stop":1702468245515,"duration":124},"status":"passed","flaky":false,"newFailed":false,"newBroken":false,"newPassed":false,"retriesCount":0,"retriesStatusChange":false,"beforeStages":[],"testStage":{"status":"passed","steps":[{"name":"Verify that Status code is 200","time":{"start":1702468245511,"stop":1702468245511,"duration":0},"status":"passed","steps":[],"attachments":[],"parameters":[],"shouldDisplayMessage":false,"stepsCount":0,"attachmentsCount":0,"hasContent":false,"attachmentStep":false},{"name":"Verify that response Details returns null","time":{"start":1702468245512,"stop":1702468245512,"duration":0},"status":"passed","steps":[],"attachments":[],"parameters":[],"shouldDisplayMessage":false,"stepsCount":0,"attachmentsCount":0,"hasContent":false,"attachmentStep":false},{"name":"Verify that SuccessMessage returns null","time":{"start":1702468245512,"stop":1702468245512,"duration":0},"status":"passed","steps":[],"attachments":[],"parameters":[],"shouldDisplayMessage":false,"stepsCount":0,"attachmentsCount":0,"hasContent":false,"attachmentStep":false}],"attachments":[{"uid":"1351d50e43550c7b","name":"response","source":"1351d50e43550c7b.txt","type":"text/plain","size":10647}],"parameters":[],"shouldDisplayMessage":false,"stepsCount":3,"attachmentsCount":1,"hasContent":true,"attachmentStep":false},"afterStages":[],"labels":[{"name":"parentSuite","value":"View products"},{"name":"resultFormat","value":"allure2"}],"parameters":[{"name":"Request","value":"POST - https://qa-api.nairacompare.ng/api/Products/get-loan-products"},{"name":"Request body","value":"{\n  \"queryString\": \"\",\n  \"rowsPerPage\": 4,\n  \"pageNumber\": 1,\n  \"total\": 10,\n  \"totalPages\": 3\n}"},{"name":"Response Code","value":"200"}],"links":[],"hidden":false,"retry":false,"extra":{"severity":"normal","retries":[],"categories":[],"tags":[]},"source":"e3667867ddf05cc7.json","parameterValues":["POST - https://qa-api.nairacompare.ng/api/Products/get-loan-products","{\n  \"queryString\": \"\",\n  \"rowsPerPage\": 4,\n  \"pageNumber\": 1,\n  \"total\": 10,\n  \"totalPages\": 3\n}","200"]}