{"isSuccess":true,"message":"Success","data":{"successMessage":"Records retrieved successfully","errorMessage":null,"responseCode":200,"total":755,"totalPages":151,"rowsPerPage":5,"pageItemsCount":5,"pageNumber":1,"queryString":"","list":[[{"applicationID":"4fa3dc9e-feba-4064-9417-8b1cc260f513","productID":"46fd9ca6-f179-4d56-9e45-b50b257a65c2","categoryName":"Children's Savings Account","customerID":"6f0f0344-4c13-4e06-a5df-29cab489c206","dateOfApplication":"2024-03-16T00:00:00","dateCreated":"2024-03-16T02:52:10.403","firstName":"Richard","lastName":"Adibe","email":"adiberichard12@gmail.com","phone":"2348066923517","gender":"male","providerName":"Realty Invest Network Solution","providerID":"f2158613-d3ab-47e1-9246-c40fd5b2ae42","productName":"Realty Children Savings","providerLogoFileSystemId":"35825ed8-e3f0-4297-a4b1-85ee03aad0eb","amount":"10000.00","interestRate":null,"duration":"3","categoryUrlSlug":"children-savings-account","applicationStatus":"Savings Pending","applicationNumber":"24/FP-0068/NC/1138","allApplicationId":"6d87f26e-f283-4d28-a3b2-83ce4fc883a4","commonPersonalDetailID":null,"customerIdentityId":null,"concurrencyHash":null,"dataSource":"Customer Savings","commonBankAccountDetailSourceId":null,"commonBankAccountDetailIncomingId":null,"commonAddressDetailId":null,"nextOfKinDetailId":"7b0382fb-56ef-4a85-88c2-6cd511ba8be7","campaignID":null,"productType":"Savings"},{"applicationID":"d0a9a362-fa0e-425c-b7aa-9cc7c2640f05","productID":"46fd9ca6-f179-4d56-9e45-b50b257a65c2","categoryName":"Children's Savings Account","customerID":"6f0f0344-4c13-4e06-a5df-29cab489c206","dateOfApplication":"2024-03-15T00:00:00","dateCreated":"2024-03-15T18:12:28.963","firstName":"Richard","lastName":"Adibe","email":"adiberichard12@gmail.com","phone":"2348066923517","gender":"male","providerName":"Realty Invest Network Solution","providerID":"f2158613-d3ab-47e1-9246-c40fd5b2ae42","productName":"Realty Children Savings","providerLogoFileSystemId":"35825ed8-e3f0-4297-a4b1-85ee03aad0eb","amount":"10000.00","interestRate":null,"duration":"3","categoryUrlSlug":"children-savings-account","applicationStatus":"Savings Pending","applicationNumber":"24/FP-0068/NC/1136","allApplicationId":"4d6e1fde-cddd-42b3-8e82-19619b81174a","commonPersonalDetailID":null,"customerIdentityId":null,"concurrencyHash":null,"dataSource":"Customer Savings","commonBankAccountDetailSourceId":null,"commonBankAccountDetailIncomingId":null,"commonAddressDetailId":null,"nextOfKinDetailId":"865456ff-c37f-4b30-8a2c-3e860cf1a58b","campaignID":null,"productType":"Savings"},{"applicationID":"0c322b52-618e-4c89-bcc1-d43457f0dc39","productID":"46fd9ca6-f179-4d56-9e45-b50b257a65c2","categoryName":"Children's Savings Account","customerID":"6f0f0344-4c13-4e06-a5df-29cab489c206","dateOfApplication":"2024-03-12T00:00:00","dateCreated":"2024-03-12T04:38:26.577","firstName":"Richard","lastName":"Adibe","email":"adiberichard12@gmail.com","phone":"2348066923517","gender":"male","providerName":"Realty Invest Network Solution","providerID":"f2158613-d3ab-47e1-9246-c40fd5b2ae42","productName":"Realty Children Savings","providerLogoFileSystemId":"35825ed8-e3f0-4297-a4b1-85ee03aad0eb","amount":"10000.00","interestRate":null,"duration":"3","categoryUrlSlug":"children-savings-account","applicationStatus":"Savings Pending","applicationNumber":"24/FP-0068/NC/1124","allApplicationId":"02d8aea4-4d0b-489c-a686-1dee123dc522","commonPersonalDetailID":null,"customerIdentityId":null,"concurrencyHash":null,"dataSource":"Customer Savings","commonBankAccountDetailSourceId":null,"commonBankAccountDetailIncomingId":null,"commonAddressDetailId":null,"nextOfKinDetailId":"a8f45f5c-86cf-4e5a-8e5b-26a6086903dd","campaignID":null,"productType":"Savings"},{"applicationID":"33117c69-bd50-4c81-b1cf-37bb1a41a1aa","productID":"46fd9ca6-f179-4d56-9e45-b50b257a65c2","categoryName":"Children's Savings Account","customerID":"6f0f0344-4c13-4e06-a5df-29cab489c206","dateOfApplication":"2024-03-12T00:00:00","dateCreated":"2024-03-12T04:41:51.853","firstName":"Richard","lastName":"Adibe","email":"adiberichard12@gmail.com","phone":"2348066923517","gender":"male","providerName":"Realty Invest Network Solution","providerID":"f2158613-d3ab-47e1-9246-c40fd5b2ae42","productName":"Realty Children Savings","providerLogoFileSystemId":"35825ed8-e3f0-4297-a4b1-85ee03aad0eb","amount":"10000.00","interestRate":null,"duration":"3","categoryUrlSlug":"children-savings-account","applicationStatus":"Savings Pending","applicationNumber":"24/FP-0068/NC/1126","allApplicationId":"038042bb-3cf8-4393-ac61-5133dc6b61e4","commonPersonalDetailID":null,"customerIdentityId":null,"concurrencyHash":null,"dataSource":"Customer Savings","commonBankAccountDetailSourceId":null,"commonBankAccountDetailIncomingId":null,"commonAddressDetailId":null,"nextOfKinDetailId":"f9e52fb8-fa04-4b8c-90ac-d169064ac6c9","campaignID":null,"productType":"Savings"},{"applicationID":"3a19528d-c2bf-4094-bec9-7b16d432f06c","productID":"46fd9ca6-f179-4d56-9e45-b50b257a65c2","categoryName":"Children's Savings Account","customerID":"6f0f0344-4c13-4e06-a5df-29cab489c206","dateOfApplication":"2024-03-12T00:00:00","dateCreated":"2024-03-12T04:49:12.68","firstName":"Richard","lastName":"Adibe","email":"adiberichard12@gmail.com","phone":"2348066923517","gender":"male","providerName":"Realty Invest Network Solution","providerID":"f2158613-d3ab-47e1-9246-c40fd5b2ae42","productName":"Realty Children Savings","providerLogoFileSystemId":"35825ed8-e3f0-4297-a4b1-85ee03aad0eb","amount":"10000.00","interestRate":null,"duration":"3","categoryUrlSlug":"children-savings-account","applicationStatus":"Savings Pending","applicationNumber":"24/FP-0068/NC/1130","allApplicationId":"aa602f0e-910c-492f-a623-5df39c4a8fad","commonPersonalDetailID":null,"customerIdentityId":null,"concurrencyHash":null,"dataSource":"Customer Savings","commonBankAccountDetailSourceId":null,"commonBankAccountDetailIncomingId":null,"commonAddressDetailId":null,"nextOfKinDetailId":"23ae13f7-bd8e-4d81-88e0-93fef7a5f1df","campaignID":null,"productType":"Savings"}]],"details":null},"errors":null,"statusCode":200}