{"isSuccess":true,"message":"Success","data":{"successMessage":"Records retrieved successfully","errorMessage":null,"responseCode":200,"total":7,"totalPages":2,"rowsPerPage":5,"pageItemsCount":5,"pageNumber":1,"queryString":"","list":[[{"applicationID":"208f1e19-6ad7-4f42-9007-6a5df41e0d05","productID":"95fc30bc-994d-46aa-a519-73351815bdca","categoryName":"Sole Trader Business Loans","customerID":"6f0f0344-4c13-4e06-a5df-29cab489c206","dateOfApplication":"2024-01-22T00:00:00","dateCreated":"2024-01-22T12:36:50.2","firstName":"Richard","lastName":"Adibe","email":"adiberichard12@gmail.com","phone":"2348066923517","gender":"male","providerName":"Realty Invest Network Solution","providerID":"f2158613-d3ab-47e1-9246-c40fd5b2ae42","productName":"Realty Business Loan","providerLogoFileSystemId":"35825ed8-e3f0-4297-a4b1-85ee03aad0eb","amount":"200000.00","interestRate":null,"duration":"3","categoryUrlSlug":"sole-trader-business-loans","applicationStatus":"Loan Pending","applicationNumber":"24/FP-0068/NC/0037","allApplicationId":"abc6f227-fc2b-4e4d-87cc-a61aa8840c04","commonPersonalDetailID":null,"customerIdentityId":null,"concurrencyHash":"375786F36CE2A7D74102FFC1A89AB7031BC24FAB0ED3C208E8DE4599BD9225C3","dataSource":"Common Applications","commonBankAccountDetailSourceId":null,"commonBankAccountDetailIncomingId":null,"commonAddressDetailId":null,"nextOfKinDetailId":null,"campaignID":"","productType":"Loan"},{"applicationID":"8ce365e6-f806-4f7c-9823-47711691b88f","productID":"95fc30bc-994d-46aa-a519-73351815bdca","categoryName":"Sole Trader Business Loans","customerID":"6f0f0344-4c13-4e06-a5df-29cab489c206","dateOfApplication":"2024-01-19T00:00:00","dateCreated":"2024-01-19T10:04:23.637","firstName":"Richard","lastName":"Adibe","email":"adiberichard12@gmail.com","phone":"2348066923517","gender":"male","providerName":"Realty Invest Network Solution","providerID":"f2158613-d3ab-47e1-9246-c40fd5b2ae42","productName":"Realty Business Loan","providerLogoFileSystemId":"35825ed8-e3f0-4297-a4b1-85ee03aad0eb","amount":"1919920.00","interestRate":null,"duration":"8","categoryUrlSlug":"sole-trader-business-loans","applicationStatus":"Loan Application Cancelled","applicationNumber":"24/FP-0068/NC/0032","allApplicationId":"084fc4fa-5480-4215-b55d-7559aefcafd5","commonPersonalDetailID":null,"customerIdentityId":null,"concurrencyHash":"DF6B8D34BA4F90F6F85415F2F497B2F0EF036F7BCF16F9C777393683E25B6A3C","dataSource":"Common Applications","commonBankAccountDetailSourceId":null,"commonBankAccountDetailIncomingId":null,"commonAddressDetailId":null,"nextOfKinDetailId":null,"campaignID":"","productType":"Loan"},{"applicationID":"0c78f653-bf9a-4564-b2c0-bfa2b0ba3136","productID":"95fc30bc-994d-46aa-a519-73351815bdca","categoryName":"Sole Trader Business Loans","customerID":"6f0f0344-4c13-4e06-a5df-29cab489c206","dateOfApplication":"2024-01-09T00:00:00","dateCreated":"2024-01-09T10:17:27.55","firstName":"Richard","lastName":"Adibe","email":"adiberichard12@gmail.com","phone":"2348066923517","gender":"male","providerName":"Realty Invest Network Solution","providerID":"f2158613-d3ab-47e1-9246-c40fd5b2ae42","productName":"Realty Business Loan","providerLogoFileSystemId":"35825ed8-e3f0-4297-a4b1-85ee03aad0eb","amount":"1576150.00","interestRate":null,"duration":"10","categoryUrlSlug":"sole-trader-business-loans","applicationStatus":"Loan Pending","applicationNumber":"24/FP-0068/NC/0015","allApplicationId":"4e9f1b9f-8c65-4782-8137-aa7dde713c16","commonPersonalDetailID":null,"customerIdentityId":null,"concurrencyHash":"C60282F944E55F647FBAF7D27E3771276FEB4C2A51EEE47D2A80B07B597A14B7","dataSource":"Common Applications","commonBankAccountDetailSourceId":null,"commonBankAccountDetailIncomingId":null,"commonAddressDetailId":null,"nextOfKinDetailId":null,"campaignID":"","productType":"Loan"},{"applicationID":"5b04a25e-28a7-468c-83c5-86831d56df6e","productID":"95fc30bc-994d-46aa-a519-73351815bdca","categoryName":"Sole Trader Business Loans","customerID":"6f0f0344-4c13-4e06-a5df-29cab489c206","dateOfApplication":"2023-12-29T00:00:00","dateCreated":"2023-12-29T11:02:29.347","firstName":"Richard","lastName":"Adibe","email":"adiberichard12@gmail.com","phone":"2348066923517","gender":"male","providerName":"Realty Invest Network Solution","providerID":"f2158613-d3ab-47e1-9246-c40fd5b2ae42","productName":"Realty Business Loan","providerLogoFileSystemId":"35825ed8-e3f0-4297-a4b1-85ee03aad0eb","amount":"1771970.00","interestRate":null,"duration":"4","categoryUrlSlug":"sole-trader-business-loans","applicationStatus":"Loan Approved","applicationNumber":"23/FP-0068/NC/0351","allApplicationId":"53a8cc2a-62d6-42d7-90da-6a221ac17f61","commonPersonalDetailID":null,"customerIdentityId":null,"concurrencyHash":"0C118A474AD3D95B97D080CA409CC78C073BAA5DB940E9C7D4C07DC52D51966E","dataSource":"Common Applications","commonBankAccountDetailSourceId":null,"commonBankAccountDetailIncomingId":null,"commonAddressDetailId":null,"nextOfKinDetailId":null,"campaignID":"","productType":"Loan"},{"applicationID":"9db77196-b47e-46dc-b2bd-b891337b08e7","productID":"95fc30bc-994d-46aa-a519-73351815bdca","categoryName":"Sole Trader Business Loans","customerID":"6f0f0344-4c13-4e06-a5df-29cab489c206","dateOfApplication":"2023-12-14T00:00:00","dateCreated":"2023-12-14T11:04:23.783","firstName":"Richard","lastName":"Adibe","email":"adiberichard12@gmail.com","phone":"2348066923517","gender":"male","providerName":"Realty Invest Network Solution","providerID":"f2158613-d3ab-47e1-9246-c40fd5b2ae42","productName":"Realty Business Loan","providerLogoFileSystemId":"35825ed8-e3f0-4297-a4b1-85ee03aad0eb","amount":"484320.00","interestRate":null,"duration":"3","categoryUrlSlug":"sole-trader-business-loans","applicationStatus":"Loan Rejected","applicationNumber":"23/FP-0068/NC/0292","allApplicationId":"91485cda-4355-4d69-9894-abc5217632be","commonPersonalDetailID":null,"customerIdentityId":null,"concurrencyHash":null,"dataSource":"Loan Applications","commonBankAccountDetailSourceId":null,"commonBankAccountDetailIncomingId":null,"commonAddressDetailId":null,"nextOfKinDetailId":null,"campaignID":null,"productType":"Loan"}]],"details":null},"errors":null,"statusCode":200}