{"isSuccess":true,"message":"Success","data":{"successMessage":"Records retrieved successfully","errorMessage":null,"responseCode":200,"total":683,"totalPages":137,"rowsPerPage":5,"pageItemsCount":5,"pageNumber":1,"queryString":"","list":[[{"applicationID":"4cae479f-11f7-4ceb-9b61-f13100c95200","productID":"46fd9ca6-f179-4d56-9e45-b50b257a65c2","categoryName":"Children's Savings Account","customerID":"6f0f0344-4c13-4e06-a5df-29cab489c206","dateOfApplication":"2024-01-22T00:00:00","dateCreated":"2024-01-22T17:31:26.6","firstName":"Richard","lastName":"Adibe","email":"adiberichard12@gmail.com","phone":"2348066923517","gender":"male","providerName":"Realty Invest Network Solution","providerID":"f2158613-d3ab-47e1-9246-c40fd5b2ae42","productName":"Realty Children Savings","providerLogoFileSystemId":"35825ed8-e3f0-4297-a4b1-85ee03aad0eb","amount":"10000.00","interestRate":null,"duration":"3","categoryUrlSlug":"children-savings-account","applicationStatus":"Savings Pending","applicationNumber":"24/FP-0068/NC/0987","allApplicationId":"84e01ff5-f7e7-460c-898e-04a1fbf7f3d8","commonPersonalDetailID":null,"customerIdentityId":null,"concurrencyHash":null,"dataSource":"Customer Savings","commonBankAccountDetailSourceId":null,"commonBankAccountDetailIncomingId":null,"commonAddressDetailId":null,"nextOfKinDetailId":"78184a81-ec67-4cd2-8a51-8fad9a4e851b","campaignID":null,"productType":"Savings"},{"applicationID":"70d5587a-c64d-4181-af95-dc56c1bcd511","productID":"46fd9ca6-f179-4d56-9e45-b50b257a65c2","categoryName":"Children's Savings Account","customerID":"6f0f0344-4c13-4e06-a5df-29cab489c206","dateOfApplication":"2024-01-22T00:00:00","dateCreated":"2024-01-22T17:26:09.85","firstName":"Richard","lastName":"Adibe","email":"adiberichard12@gmail.com","phone":"2348066923517","gender":"male","providerName":"Realty Invest Network Solution","providerID":"f2158613-d3ab-47e1-9246-c40fd5b2ae42","productName":"Realty Children Savings","providerLogoFileSystemId":"35825ed8-e3f0-4297-a4b1-85ee03aad0eb","amount":"10000.00","interestRate":null,"duration":"3","categoryUrlSlug":"children-savings-account","applicationStatus":"Savings Pending","applicationNumber":"24/FP-0068/NC/0985","allApplicationId":"a50a74e0-871a-4c99-bae8-ee7f73318216","commonPersonalDetailID":null,"customerIdentityId":null,"concurrencyHash":null,"dataSource":"Customer Savings","commonBankAccountDetailSourceId":null,"commonBankAccountDetailIncomingId":null,"commonAddressDetailId":null,"nextOfKinDetailId":"31f5e600-8efd-4b2e-ab01-4833387d3924","campaignID":null,"productType":"Savings"},{"applicationID":"db2c29a6-8663-4036-9112-dc5356adcc0a","productID":"46fd9ca6-f179-4d56-9e45-b50b257a65c2","categoryName":"Children's Savings Account","customerID":"6f0f0344-4c13-4e06-a5df-29cab489c206","dateOfApplication":"2024-01-22T00:00:00","dateCreated":"2024-01-22T16:59:45.857","firstName":"Richard","lastName":"Adibe","email":"adiberichard12@gmail.com","phone":"2348066923517","gender":"male","providerName":"Realty Invest Network Solution","providerID":"f2158613-d3ab-47e1-9246-c40fd5b2ae42","productName":"Realty Children Savings","providerLogoFileSystemId":"35825ed8-e3f0-4297-a4b1-85ee03aad0eb","amount":"10000.00","interestRate":null,"duration":"3","categoryUrlSlug":"children-savings-account","applicationStatus":"Savings Pending","applicationNumber":"24/FP-0068/NC/0983","allApplicationId":"9dd86175-323f-4d18-a70f-dc2e0e7bbe12","commonPersonalDetailID":null,"customerIdentityId":null,"concurrencyHash":null,"dataSource":"Customer Savings","commonBankAccountDetailSourceId":null,"commonBankAccountDetailIncomingId":null,"commonAddressDetailId":null,"nextOfKinDetailId":"f661a4f9-e8be-48a3-8735-b5f1ceba1bb7","campaignID":null,"productType":"Savings"},{"applicationID":"08f88104-48af-410b-bbcb-accc98d15d3f","productID":"5658dc76-71f7-46b9-922a-405352acaec8","categoryName":"Fixed Deposit Account","customerID":"6f0f0344-4c13-4e06-a5df-29cab489c206","dateOfApplication":"2024-01-19T00:00:00","dateCreated":"2024-01-19T15:59:10.16","firstName":"Richard","lastName":"Adibe","email":"adiberichard12@gmail.com","phone":"2348066923517","gender":"male","providerName":"Realty Invest Network Solution limited","providerID":"f2158613-d3ab-47e1-9246-c40fd5b2ae42","productName":"Savings By EF 2","providerLogoFileSystemId":"35825ed8-e3f0-4297-a4b1-85ee03aad0eb","amount":"1000.00","interestRate":"1","duration":"15","categoryUrlSlug":"fixed-deposit-account","applicationStatus":"Savings Pending","applicationNumber":"24/FP-0068/NC/0034","allApplicationId":"2a8ca51c-7325-4578-b8eb-d0ddeade2334","commonPersonalDetailID":"b4c06ae3-85a7-4e7b-a6ec-811635cd4612","customerIdentityId":null,"concurrencyHash":"21FE083C3462748D4888B5E7349947DDBD3DB072CF5BF002B91D20E8DB95445E","dataSource":"Common Applications","commonBankAccountDetailSourceId":"f8a93e4a-6600-46fb-bb92-1196ce8b67d6","commonBankAccountDetailIncomingId":"f8a93e4a-6600-46fb-bb92-1196ce8b67d6","commonAddressDetailId":"1a29e72e-832c-4fda-9ea9-57650d200376","nextOfKinDetailId":"211efe6e-d9e8-4952-a794-e5eb2056c6a8","campaignID":"","productType":"Fixed Deposit"},{"applicationID":"5302ea19-acb2-4b63-8820-9bc86745dbde","productID":"8d762146-b3f6-4f43-9879-7c335bc39747","categoryName":"Personal Savings Account","customerID":"6f0f0344-4c13-4e06-a5df-29cab489c206","dateOfApplication":"2024-01-19T00:00:00","dateCreated":"2024-01-19T15:28:05.463","firstName":"Richard","lastName":"Adibe","email":"adiberichard12@gmail.com","phone":"2348066923517","gender":"male","providerName":"Realty Invest Network Solution","providerID":"f2158613-d3ab-47e1-9246-c40fd5b2ae42","productName":"Daily Savings","providerLogoFileSystemId":"35825ed8-e3f0-4297-a4b1-85ee03aad0eb","amount":"1000.00","interestRate":null,"duration":"6","categoryUrlSlug":"personal-savings-account","applicationStatus":"Savings Pending","applicationNumber":"24/FP-0068/NC/0980","allApplicationId":"158adfcf-8120-4e89-868e-3f32ca677a67","commonPersonalDetailID":null,"customerIdentityId":null,"concurrencyHash":null,"dataSource":"Customer Savings","commonBankAccountDetailSourceId":null,"commonBankAccountDetailIncomingId":null,"commonAddressDetailId":null,"nextOfKinDetailId":null,"campaignID":null,"productType":"Savings"}]],"details":null},"errors":null,"statusCode":200}