{"isSuccess":true,"message":"Success","data":{"successMessage":"Records retrieved successfully","errorMessage":null,"responseCode":200,"total":126,"totalPages":26,"rowsPerPage":5,"pageItemsCount":5,"pageNumber":1,"queryString":"","list":[[{"applicationID":"010b84e7-a828-4dd3-a6ab-a9f707588c3a","productID":"46fd9ca6-f179-4d56-9e45-b50b257a65c2","categoryName":"Children's Savings Account","customerID":"6f0f0344-4c13-4e06-a5df-29cab489c206","dateOfApplication":"2023-12-13T00:00:00","dateCreated":"2023-12-13T12:24:39.963","firstName":"Richard","lastName":"Adibe","email":"adiberichard12@gmail.com","phone":"2348066923517","gender":"male","providerName":"Realty Invest Network Solution","providerID":"f2158613-d3ab-47e1-9246-c40fd5b2ae42","productName":"Realty Children Savings","providerLogoFileSystemId":"35825ed8-e3f0-4297-a4b1-85ee03aad0eb","amount":"10000.00","interestRate":null,"duration":"3","categoryUrlSlug":"children-savings-account","applicationStatus":"Savings Pending","applicationNumber":"23/FP-0068/NC/0426","allApplicationId":"386d9b11-a58b-489f-ae3f-bd1e37e02fd7","commonPersonalDetailID":null,"customerIdentityId":null,"concurrencyHash":null,"dataSource":"Customer Savings","commonBankAccountDetailSourceId":null,"commonBankAccountDetailIncomingId":null,"commonAddressDetailId":null,"nextOfKinDetailId":"a358dbd0-f9cd-4bcf-8b97-f1d17278a221","campaignID":null,"productType":"Savings"},{"applicationID":"02176da5-016b-484a-9aa9-b760a9e59730","productID":"46fd9ca6-f179-4d56-9e45-b50b257a65c2","categoryName":"Children's Savings Account","customerID":"6f0f0344-4c13-4e06-a5df-29cab489c206","dateOfApplication":"2023-12-13T00:00:00","dateCreated":"2023-12-13T10:16:34.823","firstName":"Richard","lastName":"Adibe","email":"adiberichard12@gmail.com","phone":"2348066923517","gender":"male","providerName":"Realty Invest Network Solution","providerID":"f2158613-d3ab-47e1-9246-c40fd5b2ae42","productName":"Realty Children Savings","providerLogoFileSystemId":"35825ed8-e3f0-4297-a4b1-85ee03aad0eb","amount":"10000.00","interestRate":null,"duration":"3","categoryUrlSlug":"children-savings-account","applicationStatus":"Savings Pending","applicationNumber":"23/FP-0068/NC/0271","allApplicationId":"255c5a55-09f2-4516-8e07-ca32e068af86","commonPersonalDetailID":null,"customerIdentityId":null,"concurrencyHash":null,"dataSource":"Customer Savings","commonBankAccountDetailSourceId":null,"commonBankAccountDetailIncomingId":null,"commonAddressDetailId":null,"nextOfKinDetailId":"5b05e61c-0e8a-486b-b63e-321fe1ceb4e7","campaignID":null,"productType":"Savings"},{"applicationID":"03dee05d-7f4e-4e72-b222-4daca4aa6b84","productID":"46fd9ca6-f179-4d56-9e45-b50b257a65c2","categoryName":"Children's Savings Account","customerID":"6f0f0344-4c13-4e06-a5df-29cab489c206","dateOfApplication":"2023-12-13T00:00:00","dateCreated":"2023-12-13T11:23:41.893","firstName":"Richard","lastName":"Adibe","email":"adiberichard12@gmail.com","phone":"2348066923517","gender":"male","providerName":"Realty Invest Network Solution","providerID":"f2158613-d3ab-47e1-9246-c40fd5b2ae42","productName":"Realty Children Savings","providerLogoFileSystemId":"35825ed8-e3f0-4297-a4b1-85ee03aad0eb","amount":"10000.00","interestRate":null,"duration":"3","categoryUrlSlug":"children-savings-account","applicationStatus":"Savings Pending","applicationNumber":"23/FP-0068/NC/0349","allApplicationId":"5d722e75-bb68-4549-9e24-9983f0868c8f","commonPersonalDetailID":null,"customerIdentityId":null,"concurrencyHash":null,"dataSource":"Customer Savings","commonBankAccountDetailSourceId":null,"commonBankAccountDetailIncomingId":null,"commonAddressDetailId":null,"nextOfKinDetailId":"3986c0f4-f608-489e-9789-7f8630067429","campaignID":null,"productType":"Savings"},{"applicationID":"045b7746-047a-413a-95d5-f3f1838856c9","productID":"46fd9ca6-f179-4d56-9e45-b50b257a65c2","categoryName":"Children's Savings Account","customerID":"6f0f0344-4c13-4e06-a5df-29cab489c206","dateOfApplication":"2023-12-13T00:00:00","dateCreated":"2023-12-13T11:35:24.367","firstName":"Richard","lastName":"Adibe","email":"adiberichard12@gmail.com","phone":"2348066923517","gender":"male","providerName":"Realty Invest Network Solution","providerID":"f2158613-d3ab-47e1-9246-c40fd5b2ae42","productName":"Realty Children Savings","providerLogoFileSystemId":"35825ed8-e3f0-4297-a4b1-85ee03aad0eb","amount":"10000.00","interestRate":null,"duration":"3","categoryUrlSlug":"children-savings-account","applicationStatus":"Savings Pending","applicationNumber":"23/FP-0068/NC/0368","allApplicationId":"20751cdd-b2da-4d22-b36c-e31c3bf24f45","commonPersonalDetailID":null,"customerIdentityId":null,"concurrencyHash":null,"dataSource":"Customer Savings","commonBankAccountDetailSourceId":null,"commonBankAccountDetailIncomingId":null,"commonAddressDetailId":null,"nextOfKinDetailId":"ba100b91-aa53-43a8-a4a3-096f01ef6975","campaignID":null,"productType":"Savings"},{"applicationID":"0890e3b9-f276-46e1-bc4e-9e1a9dd0dcb6","productID":"46fd9ca6-f179-4d56-9e45-b50b257a65c2","categoryName":"Children's Savings Account","customerID":"6f0f0344-4c13-4e06-a5df-29cab489c206","dateOfApplication":"2023-12-13T00:00:00","dateCreated":"2023-12-13T12:51:29.35","firstName":"Richard","lastName":"Adibe","email":"adiberichard12@gmail.com","phone":"2348066923517","gender":"male","providerName":"Realty Invest Network Solution","providerID":"f2158613-d3ab-47e1-9246-c40fd5b2ae42","productName":"Realty Children Savings","providerLogoFileSystemId":"35825ed8-e3f0-4297-a4b1-85ee03aad0eb","amount":"10000.00","interestRate":null,"duration":"3","categoryUrlSlug":"children-savings-account","applicationStatus":"Savings Pending","applicationNumber":"23/FP-0068/NC/0440","allApplicationId":"6cf6362e-6650-4bbb-a1fd-e25f69254d23","commonPersonalDetailID":null,"customerIdentityId":null,"concurrencyHash":null,"dataSource":"Customer Savings","commonBankAccountDetailSourceId":null,"commonBankAccountDetailIncomingId":null,"commonAddressDetailId":null,"nextOfKinDetailId":"5d6646e0-4e0b-448b-ad48-e658e011ab3d","campaignID":null,"productType":"Savings"}]],"details":null},"errors":null,"statusCode":200}